infrastructure;1.0
infrastructures;1.0
disaster recovery;1.0
rebuild;1.0
highway;1


infrastructurethe;0.978867352009
infrastructures;0.969261288643
linfrastructure;0.964148163795
infrastucture;0.955760002136
infrastructural;0.947165846825
housinginfrastructure;0.946025013924
infrastructurewarehousing;0.937150835991
infrastructurerelated;0.930336415768
shelterinfrastructure;0.920772731304
dinfrastructures;0.91837644577
infrastructre;0.904100000858
infrastracture;0.884214758873
infastructure;0.875711560249
utilities;0.82182854414
reconstructionrepair;0.811332702637
repairreconstruction;0.808588981628
facilities;0.804882407188
postreconstruction;0.80085259676
damagedestruction;0.800791621208
rebuildingrepairing;0.79953122139
roadsbridges;0.798191905022
damagedthe;0.797800600529
assetbuilding;0.793372929096
buildings;0.793368399143
5destructiondamages;0.793045520782
facilitiesservices;0.791760921478
reconstructiondevelopment;0.791512846947
undersupply;0.790767788887
repairrehabilitation;0.790545642376
upgradation;0.789630711079
dinfrastructures;0.974771618843
linfrastructure;0.971948385239
infrastructure;0.969261288643
infrastructurethe;0.967275440693
housinginfrastructure;0.938521206379
infrastructural;0.925128877163
shelterinfrastructure;0.916824221611
infrastucture;0.915054678917
infrastructurewarehousing;0.914934575558
infrastructre;0.913357019424
infrastructurerelated;0.910096585751
infrastracture;0.844977378845
infastructure;0.843872606754
hutsstructures;0.828577160835
utilities;0.819936275482
facilities;0.811881542206
structures;0.801620781422
reconstructionrepair;0.800883889198
roadsbridges;0.797309041023
5destructiondamages;0.79558968544
postreconstruction;0.794796049595
repairreconstruction;0.794481158257
facilitiesservices;0.794358253479
superstructures;0.79052656889
restructures;0.787538647652
substructures;0.786491215229
outbuildings;0.786467075348
reconstructionrehabilitation;0.784360051155
damagedestruction;0.783322393894
buildings’;0.782122671604
prebuild;0.928199887276
rebuilds;0.915171384811
rebuilding;0.906322240829
rebuilders;0.903824985027
repairrebuild;0.897337317467
reconstruct;0.878864645958
build;0.835254192352
rebuilt;0.833593964577
rebuildingrepairing;0.830124378204
houserebuilding;0.825672268867
reconstructing;0.821586370468
reconstructs;0.820220768452
homebuilding;0.809831619263
deconstruct;0.802322864532
nobuild;0.800091326237
recoveryreconstruction;0.798914670944
build;0.791575551033
repairreconstruction;0.790373921394
reconstructions;0.787115216255
housebuilding;0.786568164825
help;0.784897327423
restore;0.784175276756
recoverythe;0.781736373901
reconstructionthe;0.781071782112
recover;0.780673742294
rehabilitateconstruct;0.772941708565
selfbuild;0.768393337727
shelterreconstruction;0.768316984177
recoverylivelihoods;0.768034875393
reconstruction;0.767614841461
superhighway;0.912248849869
highways;0.905453801155
highwaymen;0.858853578568
hway;0.837088644505
highwalled;0.834270775318
road;0.828685283661
road;0.826486885548
roadtraffic;0.805634915829
roadrail;0.804261922836
roadbed;0.801977515221
roadway;0.799269199371
roads;0.788323044777
roadbridge;0.785758972168
junction;0.7844145298
highwater;0.784169375896
railway;0.781561136246
railroad;0.78049659729
roadbeds;0.77979695797
railroads;0.778218865395
roadways;0.773129582405
traffic;0.765202283859
blockpost;0.762477517128
bridgeway;0.761667013168
taxiway;0.760238409042
roadsbridges;0.755610823631
junctions;0.752732932568
passaway;0.749007403851
motorway;0.748759508133
railroading;0.746963858604
subway;0.746562242508
rebuilding;0.0015
damage;0.0015
destroy;0.0015
construction;0.0015
construct;0.0015
collapse;0.0015
dam;0.0015
tunnels;0.0015
engineering;0.015
engineer;0.0014
risk reduction;0.0015
disaster risk;0.0013
infrastructure investment;0.0015
tsunami;0.0015
typhoon;0.0015
interdependencies;0.0015
environmental;0.0008
disruption;0.0015
collapsed;0.0015
pylon;0.0015
road;0.0015
Reconstruction;0.0015
governance;0.000860221850477
Prevention;0.000725991805432
society;0.000689621126183
collaboration;0.000688177480382
funds;0.000688177480382
Systems;0.000655622738627
assessments;0.000645326049272
mitigation;0.000630829357017
hospitals;0.000611914556052
societal;0.000611914556052
disaster-resilient;0.001564660293113
disaster resilient;0.001564660293113
telecommunications;0.001564660293113
geographically;0.000564660293113
interdependent;0.000564660293113
transportation;0.000547375858715
framework;0.00154448784914
disasters;0.001540048719293
assessment;0.000530477789372
functional;0.000524498190901
manage;0.000510457358568
reduction;0.000503953899903
communities;0.000486556318858
connecting;0.000483994536954
socio-ecological;0.000483994536954
technological;0.000483994536954
aviation;0.000483994536954
proposals;0.000483994536954
planning;0.000482078599979
maintenance;0.001580790008326
Fund;0.000480790008326
integrated;0.000476426867997
insurance;0.000476426867997
development;0.000471365742201
Development;0.000471351433894
recovery;0.000460652884424
outages;0.000458784986921
restoration;0.000458784986921
ecological;0.000458784986921
perspective;0.000458784986921
perspectives;0.000458784986921
catastrophe;0.001558784986921
Rural;0.000458784986921
Institute;0.00045614654893
engineers;0.001542396377426
